[
  {
    "id": 1,
    "title": "Home",
    "link": "/service-classic",
    "subMenu": false
  },
  {
    "id": 2,
    "title": "Request Plasma",
    "link": "/service-classic",
    "subMenu": false
  },
  {
    "id": 3,
    "title": "Donor Plasma",
    "link": "/service-classic",
    "subMenu": false
  },
  {
    "id": 4,
    "title": "Artikel",
    "link": "/service-classic",
    "subMenu": false
  },
  {
    "id": 5,
    "title": "Login / Register",
    "link": "/service-classic",
    "subMenu": false
  }
]
